{
  "html_attributions": [],
  "result": {
    "address_components": [
      {
        "long_name": "48",
        "short_name": "48",
        "types": [
          "street_number"
        ]
      },
      {
        "long_name": "Pirrama Road",
        "short_name": "Pirrama Road",
        "types": [
          "route"
        ]
      },
      {
        "long_name": "Pyrmont",
        "short_name": "Pyrmont",
        "types": [
          "locality",
          "political"
        ]
      },
      {
        "long_name": "NSW",
        "short_name": "NSW",
        "types": [
          "administrative_area_level_1",
          "political"
        ]
      },
      {
        "long_name": "AU",
        "short_name": "AU",
        "types": [
          "country",
          "political"
        ]
      },
      {
        "long_name": "2009",
        "short_name": "2009",
        "types": [
          "postal_code"
        ]
      }
    ],
    "formatted_address": "48 Pirrama Road, Pyrmont NSW, Australia",
    "formatted_phone_number": "(02) 9374 4000",
    "geometry": {
      "location": {
        "lat": -33.8669710,
        "lng": 151.1958750
      },
      "viewport": {
        "northeast": {
          "lat": -33.8665053,
          "lng": 151.1960371
        },
        "southwest": {
          "lat": -33.8669293,
          "lng": 151.1952183
        }
      }
    },
    "icon": "http://maps.gstatic.com/mapfiles/place_api/icons/generic_business-71.png",
    "id": "4f89212bf76dde31f092cfc14d7506555d85b5c7",
    "international_phone_number": "+61 2 9374 4000",
    "name": "Google Sydney",
    "place_id": "ChIJN1t_tDeuEmsRUsoyG83frY4",
    "scope": "GOOGLE",
    "alt_ids": [
      {
        "place_id": "D9iJyWEHuEmuEmsRm9hTkapTCrk",
        "scope": "APP"
      }
    ],
    "rating": 4.70,
    "reference": "CnRsAAAA98C4wD-VFvzGq-KHVEFhlHuy1TD1W6UYZw7KjuvfVsKMRZkbCVBVDxXFOOCM108n9PuJMJxeAxix3WB6B16c1p2bY1ZQyOrcu1d9247xQhUmPgYjN37JMo5QBsWipTsnoIZA9yAzA-0pnxFM6yAcDhIQbU0z05f3xD3m9NQnhEDjvBoUw-BdcocVpXzKFcnMXUpf-nkyF1w",
    "reviews": [
      {
        "aspects": [
          {
            "rating": 3,
            "type": "quality"
          }
        ],
        "author_name": "Simon Bengtsson",
        "author_url": "https://plus.google.com/104675092887960962573",
        "language": "en",
        "rating": 5,
        "text": "Just went inside to have a look at Google. Amazing.",
        "time": 1338440552869
      },
      {
        "aspects": [
          {
            "rating": 3,
            "type": "quality"
          }
        ],
        "author_name": "Felix Rauch Valenti",
        "author_url": "https://plus.google.com/103291556674373289857",
        "language": "en",
        "rating": 5,
        "text": "Best place to work :-)",
        "time": 1338411244325
      },
      {
        "aspects": [
          {
            "rating": 3,
            "type": "quality"
          }
        ],
        "author_name": "Chris",
        "language": "en",
        "rating": 5,
        "text": "Great place to work, always lots of free food!",
        "time": 1330467089039
      }
    ],
    "types": [
      "establishment"
    ],
    "url": "http://maps.google.com/maps/place?cid=10281119596374313554",
    "vicinity": "48 Pirrama Road, Pyrmont",
    "website": "http://www.google.com.au/"
  },
  "status": "OK"
}
